<?xml version="1.0" encoding="utf-8"?>
<!-- Generator: Adobe Illustrator 23.1.0, SVG Export Plug-In . SVG Version: 6.00 Build 0)  -->
<svg version="1.1" id="Warstwa_1" xmlns="http://www.w3.org/2000/svg" xmlns:xlink="http://www.w3.org/1999/xlink" x="0px" y="0px"
	 viewBox="0 0 225.6 733.1" style="enable-background:new 0 0 225.6 733.1;" xml:space="preserve">
<style type="text/css">
	.st0{fill-rule:evenodd;clip-rule:evenodd;fill:#FFCEA9;}
	.st1{fill-rule:evenodd;clip-rule:evenodd;fill:#2E4663;}
	.st2{fill-rule:evenodd;clip-rule:evenodd;}
	.st3{fill-rule:evenodd;clip-rule:evenodd;fill:#3B4161;}
	.st4{fill-rule:evenodd;clip-rule:evenodd;fill:#15192C;}
	.st5{fill-rule:evenodd;clip-rule:evenodd;fill:#F7D167;}
	.st6{fill:none;stroke:#737999;stroke-width:1.7;stroke-linecap:round;stroke-linejoin:round;}
	.st7{fill-rule:evenodd;clip-rule:evenodd;fill:#FFFFFF;}
	.st8{fill:none;stroke:#C9C9C9;stroke-width:2;stroke-linecap:round;stroke-linejoin:round;}
	.st9{fill:none;stroke:#353823;stroke-width:3.41;stroke-linecap:round;stroke-linejoin:round;}
	.st10{fill-rule:evenodd;clip-rule:evenodd;fill:#353823;}
	
		.st11{fill-rule:evenodd;clip-rule:evenodd;fill:#606060;stroke:#C9C9C9;stroke-width:2;stroke-linecap:round;stroke-linejoin:round;}
	.st12{fill-rule:evenodd;clip-rule:evenodd;fill:#C9C9C9;}
	.st13{fill:none;stroke:#A7464F;stroke-width:3.41;stroke-linecap:round;stroke-linejoin:round;}
	.st14{fill:none;stroke:#A94B53;stroke-width:3.41;stroke-linecap:round;stroke-linejoin:round;}
	.st15{fill-rule:evenodd;clip-rule:evenodd;fill:#B5545C;}
	.st16{fill:none;stroke:#FFFFFF;stroke-width:3.41;stroke-linecap:round;stroke-linejoin:round;}
	.st17{fill:none;stroke:#4C4FD9;stroke-width:1.7;stroke-linecap:round;stroke-linejoin:round;}
</style>
<g id="Layer_2">
	<g id="Layer_1-2">
		<path class="st0" d="M134.3,651.5l-2.3,43.1l-34.9-1.3l-8.7-28.7L134.3,651.5z"/>
		<path class="st1" d="M133.5,689.6l-43.6,0c0,0,0,0.6,0.2,12.4c-48.2,0.5-50.9,27.4-50.9,27.4l94.3-2.1V689.6L133.5,689.6z"/>
		<path class="st0" d="M129.9,668.2l9.5,31.4l36.4-1.3l0.7-28.2L129.9,668.2z"/>
		<path class="st2" d="M179.1,48.5c-0.2,18.1,10.1,44.1,10.1,60.4c0,23.3-50.4,33-62,32.9S75.1,133,73.5,103
			c-0.3-5.8,2.6-12.9,2.7-23c0.1-13.3-2.5-15.3-2.5-28.5C73.7,37.6,81.9,0,121.5,0C148.2,0,179.6,11,179.1,48.5z"/>
		<path class="st1" d="M134.4,693.3v11.8c-50.7,0.5-50.7,28-50.7,28l92.5-2.1l0.5-37.7H134.4z"/>
		<path class="st3" d="M160,318.4L63.4,321l-14.6,70.4l27.1,275l42.6-5.8l1,12.2l66.1,1.4l0.2-263.7L160,318.4z"/>
		<path class="st4" d="M118.4,660.6l-42.7,5l-7.5-76.4l39.7-66.6L118.4,660.6z"/>
		<path class="st5" d="M160.1,131.5l-43.4-6.6l-24,10.7l-24,23.1L56,238.2L65.5,342h70.2L160.1,131.5z"/>
		<path class="st6" d="M162.8,393.3l0.5,280.5"/>
		<path class="st7" d="M150.1,132L125,200.4l-4.4,124.4c0,0,2.1,41.9,2.9,53.1c5,5.9,55.6,42,83.1,43.7c7.1,0.4,12.1-10.7,13.9-18
			c1.8-7.3-5.5-95.3-6.3-99.1c0.9-0.2,1.8-0.5,2.6-0.9c12.8-6,9-130,3.6-143.7c-7.2-18.1-56.2-35.9-72.6-36.3
			C131.4,123.1,150.1,132,150.1,132z"/>
		<path class="st7" d="M89.3,195.3c0,0-9.1,122.5-11.2,129.4s-2.7,39.3-5.4,45s-17.4,28.9-28.8,34.7c-7-7.4-5-46.7,1.6-75.8
			c7.2-31.5-8.8-53.5-8.8-53.5s-2.2-108.5,2.1-116.9c5.1-10,45-31.9,73.2-35.4C93.4,145.7,89.3,195.3,89.3,195.3z"/>
		<path class="st8" d="M125.3,199.9c14.8-11.3,43.6-40.8,57.8-66.7"/>
		<path class="st8" d="M91.7,201.3c-9.9-29.5-6.6-58.4,6-75.5"/>
		<path class="st9" d="M157.4,216.9L157.4,216.9c-6.3,0-11.3-5.1-11.3-11.3c0-6.3,5-11.3,11.3-11.3s11.3,5.1,11.3,11.3
			S163.7,216.9,157.4,216.9z"/>
		<path class="st10" d="M157.5,211.4L157.5,211.4c-3.2,0-5.8-2.6-5.8-5.8s2.6-5.8,5.8-5.8c3.1,0,5.7,2.6,5.7,5.8
			S160.6,211.4,157.5,211.4z"/>
		<path class="st9" d="M149,121c19.6,7,19.1,45.9,11.5,73.8"/>
		<path class="st9" d="M90.3,161.5c2.5-18.7,13.2-40.6,24.4-45.3"/>
		<path class="st9" d="M77.4,224.1C67.1,222,61.7,206.3,65.3,189s14.7-29.7,25-27.5s15.7,17.9,12.1,35.2
			C98.9,214,87.7,226.2,77.4,224.1z"/>
		<path class="st8" d="M176.4,253.6l-4.3-84.1"/>
		<path class="st8" d="M173,187.7l11.2-15.7"/>
		<path class="st11" d="M189.9,257.2l-43.2-10.3"/>
		<path class="st8" d="M176.7,254.1l11-8.4"/>
		<path class="st8" d="M195.3,138.8c8.4,4,24.5,14,27.7,29.4c5.5,26.5,2.4,126.5-8.5,136.2c-8.1,7.2-51.2-1.5-69.4-8.8"/>
		<path class="st8" d="M162.7,250.7c2.5,9.9,0.5,42.6-4.7,49.2"/>
		<path class="st12" d="M157.5,257.2c0,1.4-1.2,2.6-2.6,2.6l0,0c-1.4,0-2.6-1.1-2.6-2.6c0-1.4,1.1-2.6,2.6-2.6
			C156.3,254.6,157.5,255.7,157.5,257.2L157.5,257.2z"/>
		<path class="st8" d="M161.3,342.8v20.9c0,9.1,7.4,16.5,16.5,16.5c9.1,0,16.5-7.4,16.5-16.5v-20.9c0-1.3-0.2-2.6-0.5-3.9
			c-4.4,1.3-8.9,2-13.5,2c-6.2,0-12.3-1.2-18-3.4C161.7,339.1,161.3,340.9,161.3,342.8z"/>
		<path class="st1" d="M110.2,199.6l33.3,122.5c1.3,5-1.8,9.1-7,9.1H50.4c-5.5-0.2-10.3-3.8-12-9.1L5.1,199.6c-1.4-5,1.8-9.1,7-9.1
			h86.2C103.8,190.7,108.6,194.4,110.2,199.6z"/>
		<path class="st3" d="M80.3,188.6l2.4,8.3c0.2,0.5,0.2,0.9,0.2,1.4c-0.2,1.8-1.7,3.1-3.5,3H30.5c-2.7-0.1-5-1.9-5.8-4.4l-2.4-8.3
			c-0.2-0.4-0.2-0.9-0.2-1.4c0.2-1.8,1.7-3.1,3.5-3h48.9C77.1,184.3,79.4,186.1,80.3,188.6z"/>
		<path class="st0" d="M145.8,286.2c-9.2-0.1-39.4-3-50.9-23.9c-4.2-7.6-2.5-25.9,2.4-29.7s6.2,1.2,23.9,12.4
			c-6-7.1-6.4-15.1-5.7-22c0.2-1.8,5.6-2.6,7.2-1.4s6,21,12.1,26c4.2,1.3,8.3,3.1,12.1,5.3C148.2,264.2,148.2,276.3,145.8,286.2z"/>
		<path class="st6" d="M117.2,651.5l68.3,2.2"/>
		<path class="st6" d="M118.4,660.5L97.5,386.6"/>
		<path class="st6" d="M73.6,643.7l43.1-5.1"/>
		<path class="st6" d="M58.6,492.4c2.3-0.7,4.6-0.9,7-0.7c9.9,1,17.1,9.7,16.1,19.6c-1,9.9-9.7,17.1-19.6,16.1"/>
		<path class="st6" d="M106,500.3c0.6-0.1,1.2-0.1,1.9-0.1c10.5,0,19.2,8.2,19.8,18.7c0.6,10.9-7.8,20.2-18.7,20.8"/>
		<path class="st13" d="M109.8,250.5l-15.5-12.4"/>
		<path class="st13" d="M112.3,266.5l-19.6-15.6"/>
		<path class="st0" d="M14.1,243.5c3.5-12.8-3.6-23.6-9-23.6c-4.7,0-4.6,5.2-3.3,8.4c3.7,8.7,4.9,17.9,4.7,22
			C6.2,256.1,10.6,256.3,14.1,243.5z"/>
		<path class="st0" d="M28.2,233.5c0,7.3-16.8,28.7-18.8,28.9s-3.3-4.5-3.4-7.6c-0.1-3.1,12.8-28.7,17.1-28.7
			C26.3,226.1,28.3,229.3,28.2,233.5z"/>
		<path class="st0" d="M33.5,248.2c0,6.4-16.7,20.1-19.1,20s-5.2-2.2-5.1-4.6s14.1-22.8,19.4-22.8C31.7,240.8,33.5,244.3,33.5,248.2
			z"/>
		<path class="st0" d="M28.5,273.4c0.1-2.1-4.5-10.7-6.7-10.9s-6.7,4.4-6.7,6.2c0,4.5,6.4,10.2,8.7,10.3
			C26.8,279.1,28.4,275.5,28.5,273.4z"/>
		<path class="st13" d="M6,254.9c0-1.9,4.5-11.7,9.1-19.3"/>
		<path class="st14" d="M9.3,263.6c0.1-2,9.9-16.5,16.2-21.3"/>
		<path class="st0" d="M122.7,99.9c-22.6,0-40.9-18.5-40.9-41.4S100.1,17,122.7,17s40.9,18.6,40.9,41.5S145.3,99.9,122.7,99.9z"/>
		<path class="st15" d="M126.8,66.7c-1.6,0.3-3.2-1.7-3.6-4.3c-0.4-2.6,0.4-4.9,2-5.2s3.2,1.7,3.6,4.3
			C129.2,64.1,128.4,66.4,126.8,66.7z"/>
		<path class="st15" d="M96,68.4c-1.4,0.3-2.9-1.5-3.3-4c-0.4-2.5,0.5-4.6,1.9-4.9s2.9,1.5,3.3,4C98.4,65.9,97.4,68.1,96,68.4z"/>
		<path class="st0" d="M109.8,100c1.6,9.9,1.4,18.4-2.8,30.2c8.5,8.2,37,10.9,43.4,1.2c-1.5-12.8,4.6-47.9,7-54.7
			C159.8,70,108.3,90.6,109.8,100z"/>
		<path class="st2" d="M143.5,13.9l23.3,27.5c0,0-1.2,19.9-16.8,17.7c-13.3-1.9-13.1-12.3-10.4-19.2c-24.5-4.6-33.4-14-33.1-23.9
			C106.9,6.1,143.6,13.8,143.5,13.9z"/>
		<path class="st2" d="M81.5,39.7c23.3-0.6,33.4-21.8,32.4-30.6S64.9,39.7,81.5,39.7z"/>
		<path class="st7" d="M94.6,100.8c-2.2-2.9-7.3-15.7-6.8-21.3c3.6-2.2,13-4.2,16.1-8c1.8-2.2,3-3.7,5.3-1.7
			c7.8,6.7,22.9,4.6,27.2,7.1c3.5,5.9,6.7,18.8,4.5,21.6C130,105.6,98.2,105.2,94.6,100.8z"/>
		<path class="st16" d="M148.2,55.3c-2.8,3.9-11.8,19.3-13.9,22.7"/>
		<path class="st16" d="M161.3,72.3c-1.6,6.3-16.1,25.4-22.2,25.4"/>
		<path class="st0" d="M157.3,75.2L157.3,75.2c-7.3,0-13.3-6-13.3-13.3s5.9-13.3,13.3-13.3c7.3,0,13.3,5.9,13.3,13.3
			S164.7,75.2,157.3,75.2z"/>
		<path class="st17" d="M176.3,723.6l-89.9,0.6"/>
		<path class="st17" d="M134.3,701.3v3.8c-37.7,0.4-47.3,15.7-49.8,23.5"/>
		<path class="st17" d="M159.3,731.5c0-0.4,0-0.8,0-1.3c0-9.4,7.6-17,17-17"/>
		<path class="st17" d="M120,706.1l4.4,7.6"/>
		<path class="st17" d="M110.2,708l3.8,7.5"/>
		<path class="st17" d="M100.8,711.4l3.3,6.1"/>
		<path class="st6" d="M75.3,350.1l46.7,1.5"/>
		<path class="st17" d="M134.3,697.4l42.3,0.7"/>
		<path class="st17" d="M90,693.7l43.5,0.3"/>
		<path class="st17" d="M87.9,721.8l-46.4,1"/>
		<path class="st17" d="M80,710.2l-4-7.1"/>
		<path class="st17" d="M73.4,711.8l-4-7.1"/>
		<path class="st17" d="M66.2,713.7l-4-7.1"/>
		<path class="st8" d="M215.7,319.3c0.6,6.6,5,72.8,4.9,83.9c-0.1,11.1-11.4,22.3-26.4,16"/>
		<path class="st8" d="M69.8,136.6C60,141,36.1,151.4,36.9,174"/>
		<path class="st8" d="M42.7,342.8c-3.2,12.5-3.1,45.1-1.2,57.2"/>
	</g>
</g>
</svg>
